{
  "project_info": {
    "project_number": "1057296768374",
    "firebase_url": "https://psptablet-c8335.firebaseio.com",
    "project_id": "psptablet-c8335",
    "storage_bucket": "psptablet-c8335.appspot.com"
  },
  "client": [
    {
      "client_info": {
        "mobilesdk_app_id": "1:1057296768374:android:ab0493ced53a052b",
        "android_client_info": {
          "package_name": "com.cdef.hoeat"
        }
      },
      "oauth_client": [
        {
          "client_id": "1057296768374-qbm2otdcgepflnis3f2cd53k0u1f1uou.apps.googleusercontent.com",
          "client_type": 3
        },
        {
          "client_id": "1057296768374-mc50ttn6i71hf63fngk6a12bq44urggf.apps.googleusercontent.com",
          "client_type": 3
        }
      ],
      "api_key": [
        {
          "current_key": "AIzaSyBX2bgRmLKRXIWWy132R6JrYdj_tTd1Gk0"
        }
      ],
      "services": {
        "analytics_service": {
          "status": 1
        },
        "appinvite_service": {
          "status": 1,
          "other_platform_oauth_client": []
        },
        "ads_service": {
          "status": 2
        }
      }
    },
    {
      "client_info": {
        "mobilesdk_app_id": "1:1057296768374:android:a22253b5701cf6d2",
        "android_client_info": {
          "package_name": "com.cdef.hoeatforkitchen"
        }
      },
      "oauth_client": [
        {
          "client_id": "1057296768374-qbm2otdcgepflnis3f2cd53k0u1f1uou.apps.googleusercontent.com",
          "client_type": 3
        },
        {
          "client_id": "1057296768374-mc50ttn6i71hf63fngk6a12bq44urggf.apps.googleusercontent.com",
          "client_type": 3
        }
      ],
      "api_key": [
        {
          "current_key": "AIzaSyBX2bgRmLKRXIWWy132R6JrYdj_tTd1Gk0"
        }
      ],
      "services": {
        "analytics_service": {
          "status": 1
        },
        "appinvite_service": {
          "status": 1,
          "other_platform_oauth_client": []
        },
        "ads_service": {
          "status": 2
        }
      }
    },
    {
      "client_info": {
        "mobilesdk_app_id": "1:1057296768374:android:b64e73aa86103bb6",
        "android_client_info": {
          "package_name": "com.cdef.orderapp"
        }
      },
      "oauth_client": [
        {
          "client_id": "1057296768374-qbm2otdcgepflnis3f2cd53k0u1f1uou.apps.googleusercontent.com",
          "client_type": 3
        },
        {
          "client_id": "1057296768374-mc50ttn6i71hf63fngk6a12bq44urggf.apps.googleusercontent.com",
          "client_type": 3
        }
      ],
      "api_key": [
        {
          "current_key": "AIzaSyBX2bgRmLKRXIWWy132R6JrYdj_tTd1Gk0"
        }
      ],
      "services": {
        "analytics_service": {
          "status": 1
        },
        "appinvite_service": {
          "status": 1,
          "other_platform_oauth_client": []
        },
        "ads_service": {
          "status": 2
        }
      }
    },
    {
      "client_info": {
        "mobilesdk_app_id": "1:1057296768374:android:8209197cc136ce6d",
        "android_client_info": {
          "package_name": "com.cdef.orderappforkitchen"
        }
      },
      "oauth_client": [
        {
          "client_id": "1057296768374-qbm2otdcgepflnis3f2cd53k0u1f1uou.apps.googleusercontent.com",
          "client_type": 3
        },
        {
          "client_id": "1057296768374-mc50ttn6i71hf63fngk6a12bq44urggf.apps.googleusercontent.com",
          "client_type": 3
        }
      ],
      "api_key": [
        {
          "current_key": "AIzaSyBX2bgRmLKRXIWWy132R6JrYdj_tTd1Gk0"
        }
      ],
      "services": {
        "analytics_service": {
          "status": 1
        },
        "appinvite_service": {
          "status": 1,
          "other_platform_oauth_client": []
        },
        "ads_service": {
          "status": 2
        }
      }
    },
    {
      "client_info": {
        "mobilesdk_app_id": "1:1057296768374:android:b523ccd1f7ae6ea9",
        "android_client_info": {
          "package_name": "com.cdef.orderappformanager"
        }
      },
      "oauth_client": [
        {
          "client_id": "1057296768374-qbm2otdcgepflnis3f2cd53k0u1f1uou.apps.googleusercontent.com",
          "client_type": 3
        },
        {
          "client_id": "1057296768374-mc50ttn6i71hf63fngk6a12bq44urggf.apps.googleusercontent.com",
          "client_type": 3
        }
      ],
      "api_key": [
        {
          "current_key": "AIzaSyBX2bgRmLKRXIWWy132R6JrYdj_tTd1Gk0"
        }
      ],
      "services": {
        "analytics_service": {
          "status": 1
        },
        "appinvite_service": {
          "status": 1,
          "other_platform_oauth_client": []
        },
        "ads_service": {
          "status": 2
        }
      }
    },
    {
      "client_info": {
        "mobilesdk_app_id": "1:1057296768374:android:7c4bf2dc786099de",
        "android_client_info": {
          "package_name": "com.cdef.orderappformanagermobile"
        }
      },
      "oauth_client": [
        {
          "client_id": "1057296768374-qbm2otdcgepflnis3f2cd53k0u1f1uou.apps.googleusercontent.com",
          "client_type": 3
        },
        {
          "client_id": "1057296768374-mc50ttn6i71hf63fngk6a12bq44urggf.apps.googleusercontent.com",
          "client_type": 3
        }
      ],
      "api_key": [
        {
          "current_key": "AIzaSyBX2bgRmLKRXIWWy132R6JrYdj_tTd1Gk0"
        }
      ],
      "services": {
        "analytics_service": {
          "status": 1
        },
        "appinvite_service": {
          "status": 1,
          "other_platform_oauth_client": []
        },
        "ads_service": {
          "status": 2
        }
      }
    },
    {
      "client_info": {
        "mobilesdk_app_id": "1:1057296768374:android:889d22d462575b3d",
        "android_client_info": {
          "package_name": "com.cdef.orderappformanagermobilecocoichibanya"
        }
      },
      "oauth_client": [
        {
          "client_id": "1057296768374-qbm2otdcgepflnis3f2cd53k0u1f1uou.apps.googleusercontent.com",
          "client_type": 3
        },
        {
          "client_id": "1057296768374-mc50ttn6i71hf63fngk6a12bq44urggf.apps.googleusercontent.com",
          "client_type": 3
        }
      ],
      "api_key": [
        {
          "current_key": "AIzaSyBX2bgRmLKRXIWWy132R6JrYdj_tTd1Gk0"
        }
      ],
      "services": {
        "analytics_service": {
          "status": 1
        },
        "appinvite_service": {
          "status": 1,
          "other_platform_oauth_client": []
        },
        "ads_service": {
          "status": 2
        }
      }
    },
    {
      "client_info": {
        "mobilesdk_app_id": "1:1057296768374:android:7ef186f41c85f14d",
        "android_client_info": {
          "package_name": "com.cdef.orderappks1929"
        }
      },
      "oauth_client": [
        {
          "client_id": "1057296768374-qbm2otdcgepflnis3f2cd53k0u1f1uou.apps.googleusercontent.com",
          "client_type": 3
        },
        {
          "client_id": "1057296768374-mc50ttn6i71hf63fngk6a12bq44urggf.apps.googleusercontent.com",
          "client_type": 3
        }
      ],
      "api_key": [
        {
          "current_key": "AIzaSyBX2bgRmLKRXIWWy132R6JrYdj_tTd1Gk0"
        }
      ],
      "services": {
        "analytics_service": {
          "status": 1
        },
        "appinvite_service": {
          "status": 1,
          "other_platform_oauth_client": []
        },
        "ads_service": {
          "status": 2
        }
      }
    },
    {
      "client_info": {
        "mobilesdk_app_id": "1:1057296768374:android:173a9dac27a018b1",
        "android_client_info": {
          "package_name": "com.cdef.orderappmacao"
        }
      },
      "oauth_client": [
        {
          "client_id": "1057296768374-qbm2otdcgepflnis3f2cd53k0u1f1uou.apps.googleusercontent.com",
          "client_type": 3
        },
        {
          "client_id": "1057296768374-mc50ttn6i71hf63fngk6a12bq44urggf.apps.googleusercontent.com",
          "client_type": 3
        }
      ],
      "api_key": [
        {
          "current_key": "AIzaSyBX2bgRmLKRXIWWy132R6JrYdj_tTd1Gk0"
        }
      ],
      "services": {
        "analytics_service": {
          "status": 1
        },
        "appinvite_service": {
          "status": 1,
          "other_platform_oauth_client": []
        },
        "ads_service": {
          "status": 2
        }
      }
    },
    {
      "client_info": {
        "mobilesdk_app_id": "1:1057296768374:android:84e40c8400fc31a5",
        "android_client_info": {
          "package_name": "com.cdef.orderappmanager"
        }
      },
      "oauth_client": [
        {
          "client_id": "1057296768374-qbm2otdcgepflnis3f2cd53k0u1f1uou.apps.googleusercontent.com",
          "client_type": 3
        },
        {
          "client_id": "1057296768374-mc50ttn6i71hf63fngk6a12bq44urggf.apps.googleusercontent.com",
          "client_type": 3
        }
      ],
      "api_key": [
        {
          "current_key": "AIzaSyBX2bgRmLKRXIWWy132R6JrYdj_tTd1Gk0"
        }
      ],
      "services": {
        "analytics_service": {
          "status": 1
        },
        "appinvite_service": {
          "status": 2,
          "other_platform_oauth_client": [
            {
              "client_id": "1057296768374-qbm2otdcgepflnis3f2cd53k0u1f1uou.apps.googleusercontent.com",
              "client_type": 3
            }
          ]
        },
        "ads_service": {
          "status": 2
        }
      }
    },
    {
      "client_info": {
        "mobilesdk_app_id": "1:1057296768374:android:cad0d10121007e18",
        "android_client_info": {
          "package_name": "com.cdef.ordertablet"
        }
      },
      "oauth_client": [
        {
          "client_id": "1057296768374-qbm2otdcgepflnis3f2cd53k0u1f1uou.apps.googleusercontent.com",
          "client_type": 3
        },
        {
          "client_id": "1057296768374-mc50ttn6i71hf63fngk6a12bq44urggf.apps.googleusercontent.com",
          "client_type": 3
        }
      ],
      "api_key": [
        {
          "current_key": "AIzaSyBX2bgRmLKRXIWWy132R6JrYdj_tTd1Gk0"
        }
      ],
      "services": {
        "analytics_service": {
          "status": 1
        },
        "appinvite_service": {
          "status": 1,
          "other_platform_oauth_client": []
        },
        "ads_service": {
          "status": 2
        }
      }
    },
    {
      "client_info": {
        "mobilesdk_app_id": "1:1057296768374:android:42e99262ac4b789a",
        "android_client_info": {
          "package_name": "kr.cdefinition.electronicpayment"
        }
      },
      "oauth_client": [
        {
          "client_id": "1057296768374-qbm2otdcgepflnis3f2cd53k0u1f1uou.apps.googleusercontent.com",
          "client_type": 3
        },
        {
          "client_id": "1057296768374-mc50ttn6i71hf63fngk6a12bq44urggf.apps.googleusercontent.com",
          "client_type": 3
        }
      ],
      "api_key": [
        {
          "current_key": "AIzaSyBX2bgRmLKRXIWWy132R6JrYdj_tTd1Gk0"
        }
      ],
      "services": {
        "analytics_service": {
          "status": 1
        },
        "appinvite_service": {
          "status": 1,
          "other_platform_oauth_client": []
        },
        "ads_service": {
          "status": 2
        }
      }
    }
  ],
  "configuration_version": "1"
}